…
But first, tasks 1 and 2 below ask you to modify a plot you made in a
previous milestone. The plot you choose should involve plotting across
at least three groups (whether by facetting, or using an aesthetic like
colour). Place this plot below (you’re allowed to modify the plot if
you’d like). If you don’t have such a plot, you’ll need to make one.
Place the code for your plot below.

<!-------------------------- Start your work below ---------------------------->

``` r
vancouver_trees
```

    ## # A tibble: 146,611 × 20
    ##    tree_id civic_number std_street    genus_name species_name cultivar_name  
    ##      <dbl>        <dbl> <chr>         <chr>      <chr>        <chr>          
    ##  1  149556          494 W 58TH AV     ULMUS      AMERICANA    BRANDON        
    ##  2  149563          450 W 58TH AV     ZELKOVA    SERRATA      <NA>           
    ##  3  149579         4994 WINDSOR ST    STYRAX     JAPONICA     <NA>           
    ##  4  149590          858 E 39TH AV     FRAXINUS   AMERICANA    AUTUMN APPLAUSE
    ##  5  149604         5032 WINDSOR ST    ACER       CAMPESTRE    <NA>           
    ##  6  149616          585 W 61ST AV     PYRUS      CALLERYANA   CHANTICLEER    
    ##  7  149617         4909 SHERBROOKE ST ACER       PLATANOIDES  COLUMNARE      
    ##  8  149618         4925 SHERBROOKE ST ACER       PLATANOIDES  COLUMNARE      
    ##  9  149619         4969 SHERBROOKE ST ACER       PLATANOIDES  COLUMNARE      
    ## 10  149625          720 E 39TH AV     FRAXINUS   AMERICANA    AUTUMN APPLAUSE
    ## # … with 146,601 more rows, and 14 more variables: common_name <chr>,
    ## #   assigned <chr>, root_barrier <chr>, plant_area <chr>,
    ## #   on_street_block <dbl>, on_street <chr>, neighbourhood_name <chr>,
    ## #   street_side_name <chr>, height_range_id <dbl>, diameter <dbl>, curb <chr>,
    ## #   date_planted <date>, longitude <dbl>, latitude <dbl>

``` r
(STRATHCONA_trees<-vancouver_trees %>%
  filter(neighbourhood_name %in% ("STRATHCONA") & genus_name %in% ("ACER")))
```

    ## # A tibble: 536 × 20
    ##    tree_id civic_number std_street  genus_name species_name cultivar_name
    ##      <dbl>        <dbl> <chr>       <chr>      <chr>        <chr>        
    ##  1  157725          920 STATION ST  ACER       PLATANOIDES  <NA>         
    ##  2  157737          739 CAMPBELL AV ACER       CAMPESTRE    <NA>         
    ##  3  157738          814 UNION ST    ACER       CAMPESTRE    <NA>         
    ##  4  157746          868 UNION ST    ACER       CAMPESTRE    <NA>         
    ##  5  157762          886 UNION ST    ACER       CAMPESTRE    <NA>         
    ##  6  157772          503 E PENDER ST ACER       RUBRUM       BOWHALL      
    ##  7  157797          603 RAYMUR AV   ACER       CAMPESTRE    <NA>         
    ##  8  157885          439 HEATLEY AV  ACER       PLATANOIDES  GLOBOSUM     
    ##  9  157898          414 CAMPBELL AV ACER       RUBRUM       BOWHALL      
    ## 10  157899          500 CAMPBELL AV ACER       RUBRUM       BOWHALL      
    ## # … with 526 more rows, and 14 more variables: common_name <chr>,
    ## #   assigned <chr>, root_barrier <chr>, plant_area <chr>,
    ## #   on_street_block <dbl>, on_street <chr>, neighbourhood_name <chr>,
    ## #   street_side_name <chr>, height_range_id <dbl>, diameter <dbl>, curb <chr>,
    ## #   date_planted <date>, longitude <dbl>, latitude <dbl>

``` r
Strathcona_dates <- STRATHCONA_trees %>%
   mutate(date_planted = yearmonth(date_planted))

(Strathcona_years <- Strathcona_dates%>% 
  separate(date_planted, into = c("Year", "Month"), sep=" "))
```

    ## # A tibble: 536 × 21
    ##    tree_id civic_number std_street  genus_name species_name cultivar_name
    ##      <dbl>        <dbl> <chr>       <chr>      <chr>        <chr>        
    ##  1  157725          920 STATION ST  ACER       PLATANOIDES  <NA>         
    ##  2  157737          739 CAMPBELL AV ACER       CAMPESTRE    <NA>         
    ##  3  157738          814 UNION ST    ACER       CAMPESTRE    <NA>         
    ##  4  157746          868 UNION ST    ACER       CAMPESTRE    <NA>         
    ##  5  157762          886 UNION ST    ACER       CAMPESTRE    <NA>         
    ##  6  157772          503 E PENDER ST ACER       RUBRUM       BOWHALL      
    ##  7  157797          603 RAYMUR AV   ACER       CAMPESTRE    <NA>         
    ##  8  157885          439 HEATLEY AV  ACER       PLATANOIDES  GLOBOSUM     
    ##  9  157898          414 CAMPBELL AV ACER       RUBRUM       BOWHALL      
    ## 10  157899          500 CAMPBELL AV ACER       RUBRUM       BOWHALL      
    ## # … with 526 more rows, and 15 more variables: common_name <chr>,
    ## #   assigned <chr>, root_barrier <chr>, plant_area <chr>,
    ## #   on_street_block <dbl>, on_street <chr>, neighbourhood_name <chr>,
    ## #   street_side_name <chr>, height_range_id <dbl>, diameter <dbl>, curb <chr>,
    ## #   Year <chr>, Month <chr>, longitude <dbl>, latitude <dbl>
…
    ## Warning in species_name == c("RUBRUM", "GINNALA", "PLATANOIDES"): longer object
    ## length is not a multiple of shorter object length

    ## # A tibble: 100 × 23
    ##    tree_id civic_number std_street    genus_name species_name cultivar_name
    ##      <dbl>        <dbl> <chr>         <chr>      <chr>        <chr>        
    ##  1  157899          500 CAMPBELL AV   ACER       RUBRUM       BOWHALL      
    ##  2   33061          350 E 2ND AV      ACER       RUBRUM       <NA>         
    ##  3  229713          408 JACKSON AV    ACER       RUBRUM       AUTUMN FLAME 
    ##  4  182056          415 ALEXANDER ST  ACER       RUBRUM       AUTUMN FLAME 
    ##  5  182464          852 E HASTINGS ST ACER       RUBRUM       BOWHALL      
    ##  6  180664          550 E HASTINGS ST ACER       RUBRUM       BOWHALL      
    ##  7   69985          275 E CORDOVA ST  ACER       RUBRUM       <NA>         
    ##  8   13365          527 MALKIN AV     ACER       PLATANOIDES  SUPERFORM    
    ##  9  141337          738 EVANS AV      ACER       RUBRUM       BOWHALL      
    ## 10  140544          738 EVANS AV      ACER       RUBRUM       BOWHALL      
    ## # … with 90 more rows, and 17 more variables: common_name <chr>,
    ## #   assigned <chr>, root_barrier <chr>, plant_area <chr>,
    ## #   on_street_block <dbl>, on_street <chr>, neighbourhood_name <chr>,
    ## #   street_side_name <chr>, height_range_id <dbl>, diameter <dbl>, curb <chr>,
    ## #   Year <chr>, Month <chr>, longitude <dbl>, latitude <dbl>,
    ## #   diameter_level <fct>, age_level <fct>
…
<!----------------------------------------------------------------------------->
<!-------------------------- Start your work below ---------------------------->

\*\*Task Number\*\*: 3

``` r
vancouver_trees
```

    ## # A tibble: 146,611 × 20
    ##    tree_id civic_number std_street    genus_name species_name cultivar_name  
    ##      <dbl>        <dbl> <chr>         <chr>      <chr>        <chr>          
    ##  1  149556          494 W 58TH AV     ULMUS      AMERICANA    BRANDON        
    ##  2  149563          450 W 58TH AV     ZELKOVA    SERRATA      <NA>           
    ##  3  149579         4994 WINDSOR ST    STYRAX     JAPONICA     <NA>           
    ##  4  149590          858 E 39TH AV     FRAXINUS   AMERICANA    AUTUMN APPLAUSE
    ##  5  149604         5032 WINDSOR ST    ACER       CAMPESTRE    <NA>           
    ##  6  149616          585 W 61ST AV     PYRUS      CALLERYANA   CHANTICLEER    
    ##  7  149617         4909 SHERBROOKE ST ACER       PLATANOIDES  COLUMNARE      
    ##  8  149618         4925 SHERBROOKE ST ACER       PLATANOIDES  COLUMNARE      
    ##  9  149619         4969 SHERBROOKE ST ACER       PLATANOIDES  COLUMNARE      
    ## 10  149625          720 E 39TH AV     FRAXINUS   AMERICANA    AUTUMN APPLAUSE
    ## # … with 146,601 more rows, and 14 more variables: common_name <chr>,
    ## #   assigned <chr>, root_barrier <chr>, plant_area <chr>,
    ## #   on_street_block <dbl>, on_street <chr>, neighbourhood_name <chr>,
    ## #   street_side_name <chr>, height_range_id <dbl>, diameter <dbl>, curb <chr>,
    ## #   date_planted <date>, longitude <dbl>, latitude <dbl>

``` r
(STRATHCONA_trees<-vancouver_trees %>%
  filter(neighbourhood_name %in% ("STRATHCONA") & genus_name %in% ("ACER")))
```

    ## # A tibble: 536 × 20
    ##    tree_id civic_number std_street  genus_name species_name cultivar_name
    ##      <dbl>        <dbl> <chr>       <chr>      <chr>        <chr>        
    ##  1  157725          920 STATION ST  ACER       PLATANOIDES  <NA>         
    ##  2  157737          739 CAMPBELL AV ACER       CAMPESTRE    <NA>         
    ##  3  157738          814 UNION ST    ACER       CAMPESTRE    <NA>         
    ##  4  157746          868 UNION ST    ACER       CAMPESTRE    <NA>         
    ##  5  157762          886 UNION ST    ACER       CAMPESTRE    <NA>         
    ##  6  157772          503 E PENDER ST ACER       RUBRUM       BOWHALL      
    ##  7  157797          603 RAYMUR AV   ACER       CAMPESTRE    <NA>         
    ##  8  157885          439 HEATLEY AV  ACER       PLATANOIDES  GLOBOSUM     
    ##  9  157898          414 CAMPBELL AV ACER       RUBRUM       BOWHALL      
    ## 10  157899          500 CAMPBELL AV ACER       RUBRUM       BOWHALL      
    ## # … with 526 more rows, and 14 more variables: common_name <chr>,
    ## #   assigned <chr>, root_barrier <chr>, plant_area <chr>,
    ## #   on_street_block <dbl>, on_street <chr>, neighbourhood_name <chr>,
    ## #   street_side_name <chr>, height_range_id <dbl>, diameter <dbl>, curb <chr>,
    ## #   date_planted <date>, longitude <dbl>, latitude <dbl>

``` r
(Strathcona_dates <- STRATHCONA_trees %>%
    mutate(num_month =month(date_planted))%>%
   mutate(date_planted = yearmonth(date_planted)))
```

    ## # A tibble: 536 × 21
    ##    tree_id civic_number std_street  genus_name species_name cultivar_name
    ##      <dbl>        <dbl> <chr>       <chr>      <chr>        <chr>        
    ##  1  157725          920 STATION ST  ACER       PLATANOIDES  <NA>         
    ##  2  157737          739 CAMPBELL AV ACER       CAMPESTRE    <NA>         
    ##  3  157738          814 UNION ST    ACER       CAMPESTRE    <NA>         
    ##  4  157746          868 UNION ST    ACER       CAMPESTRE    <NA>         
    ##  5  157762          886 UNION ST    ACER       CAMPESTRE    <NA>         
    ##  6  157772          503 E PENDER ST ACER       RUBRUM       BOWHALL      
    ##  7  157797          603 RAYMUR AV   ACER       CAMPESTRE    <NA>         
    ##  8  157885          439 HEATLEY AV  ACER       PLATANOIDES  GLOBOSUM     
    ##  9  157898          414 CAMPBELL AV ACER       RUBRUM       BOWHALL      
    ## 10  157899          500 CAMPBELL AV ACER       RUBRUM       BOWHALL      
    ## # … with 526 more rows, and 15 more variables: common_name <chr>,
    ## #   assigned <chr>, root_barrier <chr>, plant_area <chr>,
    ## #   on_street_block <dbl>, on_street <chr>, neighbourhood_name <chr>,
    ## #   street_side_name <chr>, height_range_id <dbl>, diameter <dbl>, curb <chr>,
    ## #   date_planted <mth>, longitude <dbl>, latitude <dbl>, num_month <dbl>
…
<!-------------------------- Start your work below ---------------------------->

Considering the results from `Research question 2,` I choose three
`species_names` and I analyze the relationship between the `diameter`and
the `date_planted`. The question I would like to answer is: can I find
any correlations between these two values? I hypothesize that if the
trees are older, the diameter would be larger.

``` r
vancouver_trees
```

    ## # A tibble: 146,611 × 20
    ##    tree_id civic_number std_street    genus_name species_name cultivar_name  
    ##      <dbl>        <dbl> <chr>         <chr>      <chr>        <chr>          
    ##  1  149556          494 W 58TH AV     ULMUS      AMERICANA    BRANDON        
    ##  2  149563          450 W 58TH AV     ZELKOVA    SERRATA      <NA>           
    ##  3  149579         4994 WINDSOR ST    STYRAX     JAPONICA     <NA>           
    ##  4  149590          858 E 39TH AV     FRAXINUS   AMERICANA    AUTUMN APPLAUSE
    ##  5  149604         5032 WINDSOR ST    ACER       CAMPESTRE    <NA>           
    ##  6  149616          585 W 61ST AV     PYRUS      CALLERYANA   CHANTICLEER    
    ##  7  149617         4909 SHERBROOKE ST ACER       PLATANOIDES  COLUMNARE      
    ##  8  149618         4925 SHERBROOKE ST ACER       PLATANOIDES  COLUMNARE      
    ##  9  149619         4969 SHERBROOKE ST ACER       PLATANOIDES  COLUMNARE      
    ## 10  149625          720 E 39TH AV     FRAXINUS   AMERICANA    AUTUMN APPLAUSE
    ## # … with 146,601 more rows, and 14 more variables: common_name <chr>,
    ## #   assigned <chr>, root_barrier <chr>, plant_area <chr>,
    ## #   on_street_block <dbl>, on_street <chr>, neighbourhood_name <chr>,
    ## #   street_side_name <chr>, height_range_id <dbl>, diameter <dbl>, curb <chr>,
    ## #   date_planted <date>, longitude <dbl>, latitude <dbl>

``` r
(RUBRUM_trees<-vancouver_trees %>%
  filter(neighbourhood_name %in% ("STRATHCONA") & species_name  %in% ("RUBRUM")))
```

    ## # A tibble: 194 × 20
    ##    tree_id civic_number std_street    genus_name species_name cultivar_name
    ##      <dbl>        <dbl> <chr>         <chr>      <chr>        <chr>        
    ##  1  157772          503 E PENDER ST   ACER       RUBRUM       BOWHALL      
    ##  2  157898          414 CAMPBELL AV   ACER       RUBRUM       BOWHALL      
    ##  3  157899          500 CAMPBELL AV   ACER       RUBRUM       BOWHALL      
    ##  4  163316          720 E HASTINGS ST ACER       RUBRUM       BOWHALL      
    ##  5  223300          640 E CORDOVA ST  ACER       RUBRUM       BOWHALL      
    ##  6   33048          350 E 2ND AV      ACER       RUBRUM       <NA>         
    ##  7   33061          350 E 2ND AV      ACER       RUBRUM       <NA>         
    ##  8  248032          601 E HASTINGS ST ACER       RUBRUM       BOWHALL      
    ##  9  229713          408 JACKSON AV    ACER       RUBRUM       AUTUMN FLAME 
    ## 10  229714          408 JACKSON AV    ACER       RUBRUM       AUTUMN FLAME 
    ## # … with 184 more rows, and 14 more variables: common_name <chr>,
    ## #   assigned <chr>, root_barrier <chr>, plant_area <chr>,
    ## #   on_street_block <dbl>, on_street <chr>, neighbourhood_name <chr>,
    ## #   street_side_name <chr>, height_range_id <dbl>, diameter <dbl>, curb <chr>,
    ## #   date_planted <date>, longitude <dbl>, latitude <dbl>

``` r
(RUBRUM_year <- STRATHCONA_trees %>%
    mutate(year2 =year(date_planted)))
```

    ## # A tibble: 536 × 21
    ##    tree_id civic_number std_street  genus_name species_name cultivar_name
    ##      <dbl>        <dbl> <chr>       <chr>      <chr>        <chr>        
    ##  1  157725          920 STATION ST  ACER       PLATANOIDES  <NA>         
    ##  2  157737          739 CAMPBELL AV ACER       CAMPESTRE    <NA>         
    ##  3  157738          814 UNION ST    ACER       CAMPESTRE    <NA>         
    ##  4  157746          868 UNION ST    ACER       CAMPESTRE    <NA>         
    ##  5  157762          886 UNION ST    ACER       CAMPESTRE    <NA>         
    ##  6  157772          503 E PENDER ST ACER       RUBRUM       BOWHALL      
    ##  7  157797          603 RAYMUR AV   ACER       CAMPESTRE    <NA>         
    ##  8  157885          439 HEATLEY AV  ACER       PLATANOIDES  GLOBOSUM     
    ##  9  157898          414 CAMPBELL AV ACER       RUBRUM       BOWHALL      
    ## 10  157899          500 CAMPBELL AV ACER       RUBRUM       BOWHALL      
    ## # … with 526 more rows, and 15 more variables: common_name <chr>,
    ## #   assigned <chr>, root_barrier <chr>, plant_area <chr>,
    ## #   on_street_block <dbl>, on_street <chr>, neighbourhood_name <chr>,
    ## #   street_side_name <chr>, height_range_id <dbl>, diameter <dbl>, curb <chr>,
    ## #   date_planted <date>, longitude <dbl>, latitude <dbl>, year2 <dbl>
…
<!-------------------------- Start your work below ---------------------------->

``` r
Cut_trees<-vancouver_trees %>%
  filter(plant_area %in% ("C")& neighbourhood_name %in% ("KITSILANO"))

observations_cut <- Cut_trees %>%
    group_by(on_street) %>%
    summarise(Count = n())%>%
  arrange(desc(Count))

print(observations_cut)
```

    ## # A tibble: 24 × 2
    ##    on_street    Count
    ##    <chr>        <int>
    ##  1 W BROADWAY     316
    ##  2 W 4TH AV       176
    ##  3 BURRARD ST      43
    ##  4 ARBUTUS ST      32
    ##  5 YEW ST          22
    ##  6 W 1ST AV        13
    ##  7 MACDONALD ST    10
    ##  8 BALACLAVA ST     9
    ##  9 MACKENZIE ST     9
    ## 10 BAYSWATER ST     7
    ## # … with 14 more rows
…
