…
# Task 1: Process and summarize my data

Just as a reminder, I’m analyzing the dataset **`vancouver_trees`**:

Acquired courtesy of The City of Vancouver’s Open Data Portal. This data
set has 146,611 rows with 20 variables. This data set has different
categorical values such as `species_name`, `cultivar_name`,
`common_nam`e, and others used for the analysis. The `diameter` values
are the only quantitative data and can be used to do statistical
analysis. The categorical values also can be used to analyze their
frequency. This is a large dataset that could be appropriate to analyze.

    vancouver_trees

    ## # A tibble: 146,611 × 20
    ##    tree_id civic_number std_street    genus_name species_name cultivar_name  
    ##      <dbl>        <dbl> <chr>         <chr>      <chr>        <chr>          
    ##  1  149556          494 W 58TH AV     ULMUS      AMERICANA    BRANDON        
    ##  2  149563          450 W 58TH AV     ZELKOVA    SERRATA      <NA>           
    ##  3  149579         4994 WINDSOR ST    STYRAX     JAPONICA     <NA>           
    ##  4  149590          858 E 39TH AV     FRAXINUS   AMERICANA    AUTUMN APPLAUSE
    ##  5  149604         5032 WINDSOR ST    ACER       CAMPESTRE    <NA>           
    ##  6  149616          585 W 61ST AV     PYRUS      CALLERYANA   CHANTICLEER    
    ##  7  149617         4909 SHERBROOKE ST ACER       PLATANOIDES  COLUMNARE      
    ##  8  149618         4925 SHERBROOKE ST ACER       PLATANOIDES  COLUMNARE      
    ##  9  149619         4969 SHERBROOKE ST ACER       PLATANOIDES  COLUMNARE      
    ## 10  149625          720 E 39TH AV     FRAXINUS   AMERICANA    AUTUMN APPLAUSE
    ## # … with 146,601 more rows, and 14 more variables: common_name <chr>,
    ## #   assigned <chr>, root_barrier <chr>, plant_area <chr>,
    ## #   on_street_block <dbl>, on_street <chr>, neighbourhood_name <chr>,
    ## #   street_side_name <chr>, height_range_id <dbl>, diameter <dbl>, curb <chr>,
    ## #   date_planted <date>, longitude <dbl>, latitude <dbl>

## Research question 1

### Neighborhoods and trees diameter

Within three different neighborhoods, I would like to know which is the
distribution of the diameter. First I selected the three neighborhoods I
will analyze: KITSILANO, MARPOLE, and OAKRIDGE. I used the function
`filter` and I save it in a new tibble called: Kits\_Mar\_Oaktrees.

    (Kits_Mar_Oaktrees<-vancouver_trees %>%
      filter(neighbourhood_name %in% c("KITSILANO", "MARPOLE", "OAKRIDGE")))

    ## # A tibble: 19,264 × 20
    ##    tree_id civic_number std_street genus_name species_name cultivar_name   
    ##      <dbl>        <dbl> <chr>      <chr>      <chr>        <chr>           
    ##  1  149556          494 W 58TH AV  ULMUS      AMERICANA    BRANDON         
    ##  2  149563          450 W 58TH AV  ZELKOVA    SERRATA      <NA>            
    ##  3  149616          585 W 61ST AV  PYRUS      CALLERYANA   CHANTICLEER     
    ##  4  149640         6968 SELKIRK ST ACER       PLATANOIDES  COLUMNARE       
    ##  5  149683         7011 SELKIRK ST ACER       PLATANOIDES  COLUMNARE       
    ##  6  149684         1223 W 54TH AV  ACER       PLATANOIDES  COLUMNARE       
    ##  7  149694         1292 W 49TH AV  ACER       PLATANOIDES  COLUMNARE       
    ##  8  155373         1900 CYPRESS ST PRUNUS     CERASIFERA   NIGRA           
    ##  9  155413         2485 W BROADWAY ULMUS      AMERICANA    BRANDON         
    ## 10  155445         2408 W 13TH AV  ACER       FREEMANI   X SCARLET SENTINEL
    ## # … with 19,254 more rows, and 14 more variables: common_name <chr>,
    ## #   assigned <chr>, root_barrier <chr>, plant_area <chr>,
    ## #   on_street_block <dbl>, on_street <chr>, neighbourhood_name <chr>,
    ## #   street_side_name <chr>, height_range_id <dbl>, diameter <dbl>, curb <chr>,
    ## #   date_planted <date>, longitude <dbl>, latitude <dbl>
…
**Number of bins = square root of the # of data points**

**Bin width = (Max-Min) ÷ Number of bins**

### Kitsilano Neighborhood

First I filtered the neighborhood of interest, as well as ACER genus.
And I get a new tibble of 2,211 values.

    Kitsilano_trees<-vancouver_trees %>%
      filter(neighbourhood_name %in% ("KITSILANO") & genus_name %in%  ("ACER"))
    print(Kitsilano_trees)

    ## # A tibble: 2,211 × 20
    ##    tree_id civic_number std_street genus_name species_name cultivar_name   
    ##      <dbl>        <dbl> <chr>      <chr>      <chr>        <chr>           
    ##  1  155445         2408 W 13TH AV  ACER       FREEMANI   X SCARLET SENTINEL
    ##  2  155446         2246 W 15TH AV  ACER       RUBRUM       KARPICK         
    ##  3  156390         2375 W 10TH AV  ACER       CAMPESTRE    <NA>            
    ##  4  156487         2295 W 6TH AV   ACER       PLATANOIDES  GLOBOSUM        
    ##  5  156489         2050 VINE ST    ACER       CAMPESTRE    <NA>            
    ##  6  156493         2091 VINE ST    ACER       PLATANOIDES  GLOBOSUM        
    ##  7  156495         2186 VINE ST    ACER       PLATANOIDES  GLOBOSUM        
    ##  8  156496         2198 VINE ST    ACER       CAMPESTRE    <NA>            
    ##  9  156497         2294 W 5TH AV   ACER       CAMPESTRE    <NA>            
    ## 10  156882         2347 W 10TH AV  ACER       CAMPESTRE    <NA>            
    ## # … with 2,201 more rows, and 14 more variables: common_name <chr>,
    ## #   assigned <chr>, root_barrier <chr>, plant_area <chr>,
    ## #   on_street_block <dbl>, on_street <chr>, neighbourhood_name <chr>,
    ## #   street_side_name <chr>, height_range_id <dbl>, diameter <dbl>, curb <chr>,
    ## #   date_planted <date>, longitude <dbl>, latitude <dbl>
…
Even though bin width 2 shows more categories, I think the best is bin
width 7. A good bin width will usually show a recognizable normal
probability distribution curve unless the data is multi-modal.

#### Strathcona Neighborhood

The second neighborhood is Strathcona. I follow the same path as in
Kitsilano. First I created a new tibble with the `filter`function:

    (STRATHCONA_trees<-vancouver_trees %>%
      filter(neighbourhood_name %in% ("STRATHCONA") & genus_name %in% ("ACER")))

    ## # A tibble: 536 × 20
    ##    tree_id civic_number std_street  genus_name species_name cultivar_name
    ##      <dbl>        <dbl> <chr>       <chr>      <chr>        <chr>        
    ##  1  157725          920 STATION ST  ACER       PLATANOIDES  <NA>         
    ##  2  157737          739 CAMPBELL AV ACER       CAMPESTRE    <NA>         
    ##  3  157738          814 UNION ST    ACER       CAMPESTRE    <NA>         
    ##  4  157746          868 UNION ST    ACER       CAMPESTRE    <NA>         
    ##  5  157762          886 UNION ST    ACER       CAMPESTRE    <NA>         
    ##  6  157772          503 E PENDER ST ACER       RUBRUM       BOWHALL      
    ##  7  157797          603 RAYMUR AV   ACER       CAMPESTRE    <NA>         
    ##  8  157885          439 HEATLEY AV  ACER       PLATANOIDES  GLOBOSUM     
    ##  9  157898          414 CAMPBELL AV ACER       RUBRUM       BOWHALL      
    ## 10  157899          500 CAMPBELL AV ACER       RUBRUM       BOWHALL      
    ## # … with 526 more rows, and 14 more variables: common_name <chr>,
    ## #   assigned <chr>, root_barrier <chr>, plant_area <chr>,
    ## #   on_street_block <dbl>, on_street <chr>, neighbourhood_name <chr>,
    ## #   street_side_name <chr>, height_range_id <dbl>, diameter <dbl>, curb <chr>,
    ## #   date_planted <date>, longitude <dbl>, latitude <dbl>
…
The bin width 5 was too large, and we will not get enough
differentiation. On the other hand, the bin width 1 is too small, and
the data cannot be grouped. The best one is bin width 2.

#### Hastings-sunrise

The last neighborhood is Hastings-sunrise.

    (Hastings_trees<-vancouver_trees %>%
      filter(neighbourhood_name %in% ("HASTINGS-SUNRISE") & genus_name %in% ("ACER")))

    ## # A tibble: 2,508 × 20
    ##    tree_id civic_number std_street  genus_name species_name cultivar_name 
    ##      <dbl>        <dbl> <chr>       <chr>      <chr>        <chr>         
    ##  1  155681         2731 E 2ND AV    ACER       CAMPESTRE    <NA>          
    ##  2  155827         2796 ADANAC ST   ACER       PLATANOIDES  <NA>          
    ##  3  155828         2796 ADANAC ST   ACER       PLATANOIDES  GLOBOSUM      
    ##  4  155830         2795 VENABLES ST ACER       PLATANOIDES  GLOBOSUM      
    ##  5  155832         2811 VENABLES ST ACER       PLATANOIDES  GLOBOSUM      
    ##  6  155833         2811 VENABLES ST ACER       PLATANOIDES  GREEN MOUNTAIN
    ##  7  155836         2806 ADANAC ST   ACER       PLATANOIDES  GLOBOSUM      
    ##  8  155844         3095 E 5TH AV    ACER       PLATANOIDES  GREEN MOUNTAIN
    ##  9  155845         3095 E 5TH AV    ACER       PLATANOIDES  GREEN MOUNTAIN
    ## 10  155846         3096 E 4TH AV    ACER       PLATANOIDES  GREEN MOUNTAIN
    ## # … with 2,498 more rows, and 14 more variables: common_name <chr>,
    ## #   assigned <chr>, root_barrier <chr>, plant_area <chr>,
    ## #   on_street_block <dbl>, on_street <chr>, neighbourhood_name <chr>,
    ## #   street_side_name <chr>, height_range_id <dbl>, diameter <dbl>, curb <chr>,
    ## #   date_planted <date>, longitude <dbl>, latitude <dbl>
…
Unfortunately, if we consider the month, we are going to have many
values. For this reason I separate the Year and the Month using the
factor `separate:`

    (Strathcona_years <- Strathcona_dates%>% 
      separate(date_planted, into = c("Year", "Month"), sep=" "))

    ## # A tibble: 536 × 21
    ##    tree_id civic_number std_street  genus_name species_name cultivar_name
    ##      <dbl>        <dbl> <chr>       <chr>      <chr>        <chr>        
    ##  1  157725          920 STATION ST  ACER       PLATANOIDES  <NA>         
    ##  2  157737          739 CAMPBELL AV ACER       CAMPESTRE    <NA>         
    ##  3  157738          814 UNION ST    ACER       CAMPESTRE    <NA>         
    ##  4  157746          868 UNION ST    ACER       CAMPESTRE    <NA>         
    ##  5  157762          886 UNION ST    ACER       CAMPESTRE    <NA>         
    ##  6  157772          503 E PENDER ST ACER       RUBRUM       BOWHALL      
    ##  7  157797          603 RAYMUR AV   ACER       CAMPESTRE    <NA>         
    ##  8  157885          439 HEATLEY AV  ACER       PLATANOIDES  GLOBOSUM     
    ##  9  157898          414 CAMPBELL AV ACER       RUBRUM       BOWHALL      
    ## 10  157899          500 CAMPBELL AV ACER       RUBRUM       BOWHALL      
    ## # … with 526 more rows, and 15 more variables: common_name <chr>,
    ## #   assigned <chr>, root_barrier <chr>, plant_area <chr>,
    ## #   on_street_block <dbl>, on_street <chr>, neighbourhood_name <chr>,
    ## #   street_side_name <chr>, height_range_id <dbl>, diameter <dbl>, curb <chr>,
    ## #   Year <chr>, Month <chr>, longitude <dbl>, latitude <dbl>
…
    ## Warning in species_name == c("RUBRUM", "GINNALA", "PLATANOIDES"): longer object
    ## length is not a multiple of shorter object length

    print(Strathcona_years_level)

    ## # A tibble: 100 × 23
    ##    tree_id civic_number std_street    genus_name species_name cultivar_name
    ##      <dbl>        <dbl> <chr>         <chr>      <chr>        <chr>        
    ##  1  157899          500 CAMPBELL AV   ACER       RUBRUM       BOWHALL      
    ##  2   33061          350 E 2ND AV      ACER       RUBRUM       <NA>         
    ##  3  229713          408 JACKSON AV    ACER       RUBRUM       AUTUMN FLAME 
    ##  4  182056          415 ALEXANDER ST  ACER       RUBRUM       AUTUMN FLAME 
    ##  5  182464          852 E HASTINGS ST ACER       RUBRUM       BOWHALL      
    ##  6  180664          550 E HASTINGS ST ACER       RUBRUM       BOWHALL      
    ##  7   69985          275 E CORDOVA ST  ACER       RUBRUM       <NA>         
    ##  8   13365          527 MALKIN AV     ACER       PLATANOIDES  SUPERFORM    
    ##  9  141337          738 EVANS AV      ACER       RUBRUM       BOWHALL      
    ## 10  140544          738 EVANS AV      ACER       RUBRUM       BOWHALL      
    ## # … with 90 more rows, and 17 more variables: common_name <chr>,
    ## #   assigned <chr>, root_barrier <chr>, plant_area <chr>,
    ## #   on_street_block <dbl>, on_street <chr>, neighbourhood_name <chr>,
    ## #   street_side_name <chr>, height_range_id <dbl>, diameter <dbl>, curb <chr>,
    ## #   Year <chr>, Month <chr>, longitude <dbl>, latitude <dbl>,
    ## #   diameter_level <chr>, age_level <chr>
…
For the last research question, I would like to see the distribution of
the trees regarding the `plant_area` in Kitsilano. `Plant_area` variable
has a classification as follows: B = behind sidewalk, G = in tree grate,
N = no sidewalk, and C = cutout. Specifically, I want to analyze how
many trees are cut out and see which street they are on.

First, I consider the whole data set vancouver\_trees and filter the
neighborhood `Kitsilano`and the `plant_area` “C” cutout trees.

    Cut_trees<-vancouver_trees %>%
      filter(plant_area %in% ("C")& neighbourhood_name %in% ("KITSILANO"))
    print(Cut_trees)

    ## # A tibble: 678 × 20
    ##    tree_id civic_number std_street genus_name species_name cultivar_name
    ##      <dbl>        <dbl> <chr>      <chr>      <chr>        <chr>        
    ##  1  157941         2324 W BROADWAY PYRUS      CALLERYANA   CHANTICLEER  
    ##  2  157953         2525 BALSAM ST  PYRUS      CALLERYANA   REDSPIRE     
    ##  3  157954         2525 BALSAM ST  PYRUS      CALLERYANA   REDSPIRE     
    ##  4  157958         2394 W BROADWAY PYRUS      CALLERYANA   CHANTICLEER  
    ##  5  157960         2404 W BROADWAY PYRUS      CALLERYANA   CHANTICLEER  
    ##  6  157961         2424 W BROADWAY PYRUS      CALLERYANA   REDSPIRE     
    ##  7  158016         2480 W BROADWAY PYRUS      CALLERYANA   REDSPIRE     
    ##  8  162950         2475 W BROADWAY CARPINUS   BETULUS      FASTIGIATA   
    ##  9  162969         2485 W BROADWAY CARPINUS   BETULUS      FASTIGIATA   
    ## 10  222037         2610 W 4TH AV   CARPINUS   BETULUS      FASTIGIATA   
    ## # … with 668 more rows, and 14 more variables: common_name <chr>,
    ## #   assigned <chr>, root_barrier <chr>, plant_area <chr>,
    ## #   on_street_block <dbl>, on_street <chr>, neighbourhood_name <chr>,
    ## #   street_side_name <chr>, height_range_id <dbl>, diameter <dbl>, curb <chr>,
    ## #   date_planted <date>, longitude <dbl>, latitude <dbl>

After this, using the group\_by, summarise, and count function, I got
the number of trees cut out for each street in Kitsilano. I arranged it
in descending order to know where I could find more cutout trees.

    observations_cut <- Cut_trees %>%
        group_by(on_street) %>%
        summarise(Count = n())%>%
      arrange(desc(Count))

    print(observations_cut)

    ## # A tibble: 24 × 2
    ##    on_street    Count
    ##    <chr>        <int>
    ##  1 W BROADWAY     316
    ##  2 W 4TH AV       176
    ##  3 BURRARD ST      43
    ##  4 ARBUTUS ST      32
    ##  5 YEW ST          22
    ##  6 W 1ST AV        13
    ##  7 MACDONALD ST    10
    ##  8 BALACLAVA ST     9
    ##  9 MACKENZIE ST     9
    ## 10 BAYSWATER ST     7
    ## # … with 14 more rows

Finally, I created a graph using latitude and longitude. Using the new
`higher_values` variable I just created, I highlight the trees of W
BROADWAY street. I used the geom\_point function and also changed its
alpha value.

    higher_values<-Cut_trees %>% 
                 filter(on_street=="W BROADWAY")
    higher_values

    ## # A tibble: 316 × 20
    ##    tree_id civic_number std_street genus_name species_name cultivar_name
    ##      <dbl>        <dbl> <chr>      <chr>      <chr>        <chr>        
    ##  1  157941         2324 W BROADWAY PYRUS      CALLERYANA   CHANTICLEER  
    ##  2  157953         2525 BALSAM ST  PYRUS      CALLERYANA   REDSPIRE     
    ##  3  157954         2525 BALSAM ST  PYRUS      CALLERYANA   REDSPIRE     
    ##  4  157958         2394 W BROADWAY PYRUS      CALLERYANA   CHANTICLEER  
    ##  5  157960         2404 W BROADWAY PYRUS      CALLERYANA   CHANTICLEER  
    ##  6  157961         2424 W BROADWAY PYRUS      CALLERYANA   REDSPIRE     
    ##  7  158016         2480 W BROADWAY PYRUS      CALLERYANA   REDSPIRE     
    ##  8  162950         2475 W BROADWAY CARPINUS   BETULUS      FASTIGIATA   
    ##  9  162969         2485 W BROADWAY CARPINUS   BETULUS      FASTIGIATA   
    ## 10  223147         3466 W BROADWAY MALUS      ZUMI         CALOCARPA    
    ## # … with 306 more rows, and 14 more variables: common_name <chr>,
    ## #   assigned <chr>, root_barrier <chr>, plant_area <chr>,
    ## #   on_street_block <dbl>, on_street <chr>, neighbourhood_name <chr>,
    ## #   street_side_name <chr>, height_range_id <dbl>, diameter <dbl>, curb <chr>,
    ## #   date_planted <date>, longitude <dbl>, latitude <dbl>
…
The only thing I can say I would change is which column goes first. In
this case, I placed first the variables `tree_id`, `genus_name`,
`height_range_id,` `root_barrier`, and then the variables regarding the
location, such as `neighbourhood_name`, `on_street`, `longitude,`
`latitude`.

    vancouver_trees %>%
      select(tree_id, genus_name, height_range_id, root_barrier, neighbourhood_name, on_street, longitude, latitude)

    ## # A tibble: 146,611 × 8
    ##    tree_id genus_name height_range_id root_barrier neighbourhood_name on_street 
    ##      <dbl> <chr>                <dbl> <chr>        <chr>              <chr>     
    ##  1  149556 ULMUS                    2 N            MARPOLE            W 58TH AV 
    ##  2  149563 ZELKOVA                  4 N            MARPOLE            W 58TH AV 
    ##  3  149579 STYRAX                   3 N            KENSINGTON-CEDAR … WINDSOR ST
    ##  4  149590 FRAXINUS                 4 N            KENSINGTON-CEDAR … E 39TH AV 
    ##  5  149604 ACER                     2 N            KENSINGTON-CEDAR … WINDSOR ST
    ##  6  149616 PYRUS                    2 N            MARPOLE            W 61ST AV 
    ##  7  149617 ACER                     3 N            KENSINGTON-CEDAR … SHERBROOK…
    ##  8  149618 ACER                     3 N            KENSINGTON-CEDAR … SHERBROOK…
    ##  9  149619 ACER                     2 N            KENSINGTON-CEDAR … SHERBROOK…
    ## 10  149625 FRAXINUS                 2 N            KENSINGTON-CEDAR … E 39TH AV 
    ## # … with 146,601 more rows, and 2 more variables: longitude <dbl>,
    ## #   latitude <dbl>
…
